…
Let’s take a look at the unique entries in the `bike_parking` column.

``` r
apt_buildings %>%
  select("bike_parking") %>%
  distinct() 
```

    ## # A tibble: 195 × 1
    ##    bike_parking                                        
    ##    <chr>                                               
    ##  1 0 indoor parking spots and 10 outdoor parking spots 
    ##  2 0 indoor parking spots and 34 outdoor parking spots 
    ##  3 Not Available                                       
    ##  4 12 indoor parking spots and 0 outdoor parking spots 
    ##  5 0 indoor parking spots and 15 outdoor parking spots 
    ##  6 0 indoor parking spots and 0 outdoor parking spots  
    ##  7 0 indoor parking spots and 7 outdoor parking spots  
    ##  8 8 indoor parking spots and 0 outdoor parking spots  
    ##  9 12 indoor parking spots and 90 outdoor parking spots
    ## 10 0 indoor parking spots and 18 outdoor parking spots 
    ## # … with 185 more rows
…
